…
## Bootstrapping

``` r
weather_bootstrap1 = 
  weather_df %>% 
  modelr::bootstrap(n = 5000, id = "strap_number") %>% 
  mutate(
    models = map(strap, ~ lm(tmax ~ tmin, data = .x)),
    results = map(models, broom::tidy)) %>% 
  select(strap_number, results) %>% 
  unnest(results) 
weather_bootstrap1
```

    ## # A tibble: 10,000 × 6
    ##    strap_number term        estimate std.error statistic   p.value
    ##    <chr>        <chr>          <dbl>     <dbl>     <dbl>     <dbl>
    ##  1 0001         (Intercept)     7.65    0.226       33.8 3.41e-114
    ##  2 0001         tmin            1.00    0.0165      60.8 2.48e-192
    ##  3 0002         (Intercept)     7.07    0.201       35.1 7.95e-119
    ##  4 0002         tmin            1.05    0.0151      69.2 3.66e-211
    ##  5 0003         (Intercept)     7.46    0.213       35.0 3.09e-118
    ##  6 0003         tmin            1.02    0.0161      63.4 1.59e-198
    ##  7 0004         (Intercept)     7.31    0.209       35.1 1.38e-118
    ##  8 0004         tmin            1.03    0.0161      64.4 1.09e-200
    ##  9 0005         (Intercept)     7.59    0.221       34.3 7.68e-116
    ## 10 0005         tmin            1.03    0.0157      65.5 3.52e-203
    ## # … with 9,990 more rows

``` r
weather_bootstrap2 = 
  weather_df %>% 
  modelr::bootstrap(n = 5000, id = "strap_number") %>% 
  mutate(
    models = map(strap, ~ lm(tmax ~ tmin, data = .x)),
    results = map(models, broom::glance)) %>% 
  select(strap_number, results) %>% 
  unnest(results)
weather_bootstrap2
```

    ## # A tibble: 5,000 × 13
    ##    strap_number r.squ…¹ adj.r…² sigma stati…³   p.value    df logLik   AIC   BIC
    ##    <chr>          <dbl>   <dbl> <dbl>   <dbl>     <dbl> <dbl>  <dbl> <dbl> <dbl>
    ##  1 0001           0.912   0.912  3.01   3778. 5.76e-194     1  -919. 1844. 1855.
    ##  2 0002           0.887   0.886  3.08   2842. 9.01e-174     1  -927. 1860. 1872.
    ##  3 0003           0.906   0.906  2.89   3518. 7.36e-189     1  -904. 1814. 1826.
    ##  4 0004           0.916   0.916  2.89   3950. 3.54e-197     1  -904. 1814. 1825.
    ##  5 0005           0.908   0.907  2.90   3570. 6.63e-190     1  -906. 1818. 1830.
    ##  6 0006           0.893   0.893  3.04   3031. 2.81e-178     1  -923. 1851. 1863.
    ##  7 0007           0.917   0.916  2.92   3995. 5.38e-198     1  -908. 1821. 1833.
    ##  8 0008           0.890   0.890  3.13   2939. 4.16e-176     1  -934. 1873. 1885.
    ##  9 0009           0.906   0.906  2.98   3510. 1.06e-188     1  -916. 1837. 1849.
    ## 10 0010           0.915   0.915  2.84   3922. 1.16e-196     1  -897. 1801. 1812.
    ## # … with 4,990 more rows, 3 more variables: deviance <dbl>, df.residual <int>,
    ## #   nobs <int>, and abbreviated variable names ¹​r.squared, ²​adj.r.squared,
    ## #   ³​statistic
…
